…
library(hansard)
library(mnis)
library(parlitools)

library(readxl)

ages <- read_excel("data/constituencyAges.xls", sheet=2, skip=2)

ages

## # A tibble: 573 x 94
##     PCON11CD                 PCON11NM `All Ages`   `0`   `1`   `2`   `3`
##        <chr>                    <chr>      <dbl> <dbl> <dbl> <dbl> <dbl>
##  1 E14000530                Aldershot     105653  1509  1445  1460  1457
##  2 E14000531      Aldridge-Brownhills      77670   814   780   806   788
##  3 E14000532 Altrincham and Sale West      99970  1079  1195  1166  1346
##  4 E14000533             Amber Valley      88985   916   883   984   960
##  5 E14000534  Arundel and South Downs      98989   848   828   896  1016
##  6 E14000535                 Ashfield     104653  1164  1248  1261  1326
##  7 E14000536                  Ashford     119036  1496  1429  1578  1611
##  8 E14000537        Ashton-under-Lyne      91374  1219  1228  1259  1288
##  9 E14000538                Aylesbury     117278  1682  1603  1725  1766
## 10 E14000539                  Banbury     120809  1523  1450  1539  1566
## # ... with 563 more rows, and 87 more variables: `4` <dbl>, `5` <dbl>,
## #   `6` <dbl>, `7` <dbl>, `8` <dbl>, `9` <dbl>, `10` <dbl>, `11` <dbl>,
## #   `12` <dbl>, `13` <dbl>, `14` <dbl>, `15` <dbl>, `16` <dbl>,
## #   `17` <dbl>, `18` <dbl>, `19` <dbl>, `20` <dbl>, `21` <dbl>,
## #   `22` <dbl>, `23` <dbl>, `24` <dbl>, `25` <dbl>, `26` <dbl>,
## #   `27` <dbl>, `28` <dbl>, `29` <dbl>, `30` <dbl>, `31` <dbl>,
## #   `32` <dbl>, `33` <dbl>, `34` <dbl>, `35` <dbl>, `36` <dbl>,
## #   `37` <dbl>, `38` <dbl>, `39` <dbl>, `40` <dbl>, `41` <dbl>,
## #   `42` <dbl>, `43` <dbl>, `44` <dbl>, `45` <dbl>, `46` <dbl>,
…
